%YAML 1.1
%TAG !u! tag:unity3d.com,2011:
--- !u!1001 &5140082599487983777
PrefabInstance:
  m_ObjectHideFlags: 0
  serializedVersion: 2
  m_Modification:
    m_TransformParent: {fileID: 0}
    m_Modifications:
    - target: {fileID: 311951629222506638, guid: a6d3d4d53689f0f488e242b651f7eb50,
        type: 3}
      propertyPath: m_LocalPosition.x
      value: 0
      objectReference: {fileID: 0}
    - target: {fileID: 311951629222506638, guid: a6d3d4d53689f0f488e242b651f7eb50,
        type: 3}
      propertyPath: m_LocalPosition.y
      value: 0
      objectReference: {fileID: 0}
    - target: {fileID: 311951629222506638, guid: a6d3d4d53689f0f488e242b651f7eb50,
        type: 3}
      propertyPath: m_LocalPosition.z
      value: 0
      objectReference: {fileID: 0}
    - target: {fileID: 311951629222506638, guid: a6d3d4d53689f0f488e242b651f7eb50,
        type: 3}
      propertyPath: m_LocalRotation.x
      value: 0
      objectReference: {fileID: 0}
    - target: {fileID: 311951629222506638, guid: a6d3d4d53689f0f488e242b651f7eb50,
        type: 3}
      propertyPath: m_LocalRotation.y
      value: 0
      objectReference: {fileID: 0}
    - target: {fileID: 311951629222506638, guid: a6d3d4d53689f0f488e242b651f7eb50,
        type: 3}
      propertyPath: m_LocalRotation.z
      value: 0
      objectReference: {fileID: 0}
    - target: {fileID: 311951629222506638, guid: a6d3d4d53689f0f488e242b651f7eb50,
        type: 3}
      propertyPath: m_LocalRotation.w
      value: 1
      objectReference: {fileID: 0}
    - target: {fileID: 311951629222506638, guid: a6d3d4d53689f0f488e242b651f7eb50,
        type: 3}
      propertyPath: m_RootOrder
      value: 0
      objectReference: {fileID: 0}
    - target: {fileID: 311951629222506638, guid: a6d3d4d53689f0f488e242b651f7eb50,
        type: 3}
      propertyPath: m_LocalEulerAnglesHint.x
      value: 0
      objectReference: {fileID: 0}
    - target: {fileID: 311951629222506638, guid: a6d3d4d53689f0f488e242b651f7eb50,
        type: 3}
      propertyPath: m_LocalEulerAnglesHint.y
      value: 0
      objectReference: {fileID: 0}
    - target: {fileID: 311951629222506638, guid: a6d3d4d53689f0f488e242b651f7eb50,
        type: 3}
      propertyPath: m_LocalEulerAnglesHint.z
      value: 0
      objectReference: {fileID: 0}
    - target: {fileID: 311951629222506638, guid: a6d3d4d53689f0f488e242b651f7eb50,
        type: 3}
      propertyPath: m_AnchoredPosition.x
      value: -4.184326
      objectReference: {fileID: 0}
    - target: {fileID: 311951629222506638, guid: a6d3d4d53689f0f488e242b651f7eb50,
        type: 3}
      propertyPath: m_AnchoredPosition.y
      value: 30.137573
      objectReference: {fileID: 0}
    - target: {fileID: 311951629222506638, guid: a6d3d4d53689f0f488e242b651f7eb50,
        type: 3}
      propertyPath: m_SizeDelta.x
      value: 100
      objectReference: {fileID: 0}
    - target: {fileID: 311951629222506638, guid: a6d3d4d53689f0f488e242b651f7eb50,
        type: 3}
      propertyPath: m_SizeDelta.y
      value: 100
      objectReference: {fileID: 0}
    - target: {fileID: 311951629222506638, guid: a6d3d4d53689f0f488e242b651f7eb50,
        type: 3}
      propertyPath: m_AnchorMin.x
      value: 0.5
      objectReference: {fileID: 0}
    - target: {fileID: 311951629222506638, guid: a6d3d4d53689f0f488e242b651f7eb50,
        type: 3}
      propertyPath: m_AnchorMin.y
      value: 0.5
      objectReference: {fileID: 0}
    - target: {fileID: 311951629222506638, guid: a6d3d4d53689f0f488e242b651f7eb50,
        type: 3}
      propertyPath: m_AnchorMax.x
      value: 0.5
      objectReference: {fileID: 0}
    - target: {fileID: 311951629222506638, guid: a6d3d4d53689f0f488e242b651f7eb50,
        type: 3}
      propertyPath: m_AnchorMax.y
      value: 0.5
      objectReference: {fileID: 0}
    - target: {fileID: 311951629222506638, guid: a6d3d4d53689f0f488e242b651f7eb50,
        type: 3}
      propertyPath: m_Pivot.x
      value: 0.45815673
      objectReference: {fileID: 0}
    - target: {fileID: 311951629222506638, guid: a6d3d4d53689f0f488e242b651f7eb50,
        type: 3}
      propertyPath: m_Pivot.y
      value: 0.08137569
      objectReference: {fileID: 0}
    - target: {fileID: 311951629222506737, guid: a6d3d4d53689f0f488e242b651f7eb50,
        type: 3}
      propertyPath: m_Name
      value: MapElement 2
      objectReference: {fileID: 0}
    m_RemovedComponents: []
  m_SourcePrefab: {fileID: 100100000, guid: a6d3d4d53689f0f488e242b651f7eb50, type: 3}
